C:\Users\aarango\Documents\qe_hiring_alejandra_arango-qe-hiring-technical-exercise-948f70055eb0\src\test\java\steps_definitions\GoogleTest.java
C:\Users\aarango\Documents\qe_hiring_alejandra_arango-qe-hiring-technical-exercise-948f70055eb0\src\test\java\data_pool\Data.java
C:\Users\aarango\Documents\qe_hiring_alejandra_arango-qe-hiring-technical-exercise-948f70055eb0\src\test\java\support\AutomationWebDriver.java
C:\Users\aarango\Documents\qe_hiring_alejandra_arango-qe-hiring-technical-exercise-948f70055eb0\src\test\java\pages\GoogleResultsPage.java
C:\Users\aarango\Documents\qe_hiring_alejandra_arango-qe-hiring-technical-exercise-948f70055eb0\src\test\java\pages\SearchSection.java
C:\Users\aarango\Documents\qe_hiring_alejandra_arango-qe-hiring-technical-exercise-948f70055eb0\src\test\java\CucumberRunner.java
C:\Users\aarango\Documents\qe_hiring_alejandra_arango-qe-hiring-technical-exercise-948f70055eb0\src\test\java\pages\GoogleTestPage.java
C:\Users\aarango\Documents\qe_hiring_alejandra_arango-qe-hiring-technical-exercise-948f70055eb0\src\test\java\locators\Locators.java
